%YAML 1.1
%TAG !u! tag:unity3d.com,2011:
--- !u!1001 &3900103916549154025
PrefabInstance:
  m_ObjectHideFlags: 0
  serializedVersion: 2
  m_Modification:
    m_TransformParent: {fileID: 0}
    m_Modifications:
    - target: {fileID: 1959519650975226035, guid: 4ca5b51c084a48c4a9ec04b936a94161,
        type: 3}
      propertyPath: m_Name
      value: Lattice Creator
      objectReference: {fileID: 0}
    - target: {fileID: 1959519650975226036, guid: 4ca5b51c084a48c4a9ec04b936a94161,
        type: 3}
      propertyPath: m_LocalPosition.x
      value: 0
      objectReference: {fileID: 0}
    - target: {fileID: 1959519650975226036, guid: 4ca5b51c084a48c4a9ec04b936a94161,
        type: 3}
      propertyPath: m_LocalPosition.y
      value: 0
      objectReference: {fileID: 0}
    - target: {fileID: 1959519650975226036, guid: 4ca5b51c084a48c4a9ec04b936a94161,
        type: 3}
      propertyPath: m_LocalPosition.z
      value: 0
      objectReference: {fileID: 0}
    - target: {fileID: 1959519650975226036, guid: 4ca5b51c084a48c4a9ec04b936a94161,
        type: 3}
      propertyPath: m_LocalRotation.x
      value: 0
      objectReference: {fileID: 0}
    - target: {fileID: 1959519650975226036, guid: 4ca5b51c084a48c4a9ec04b936a94161,
        type: 3}
      propertyPath: m_LocalRotation.y
      value: 0
      objectReference: {fileID: 0}
    - target: {fileID: 1959519650975226036, guid: 4ca5b51c084a48c4a9ec04b936a94161,
        type: 3}
      propertyPath: m_LocalRotation.z
      value: 0
      objectReference: {fileID: 0}
    - target: {fileID: 1959519650975226036, guid: 4ca5b51c084a48c4a9ec04b936a94161,
        type: 3}
      propertyPath: m_LocalRotation.w
      value: 1
      objectReference: {fileID: 0}
    - target: {fileID: 1959519650975226036, guid: 4ca5b51c084a48c4a9ec04b936a94161,
        type: 3}
      propertyPath: m_RootOrder
      value: 0
      objectReference: {fileID: 0}
    - target: {fileID: 1959519650975226036, guid: 4ca5b51c084a48c4a9ec04b936a94161,
        type: 3}
      propertyPath: m_LocalEulerAnglesHint.x
      value: 0
      objectReference: {fileID: 0}
    - target: {fileID: 1959519650975226036, guid: 4ca5b51c084a48c4a9ec04b936a94161,
        type: 3}
      propertyPath: m_LocalEulerAnglesHint.y
      value: 0
      objectReference: {fileID: 0}
    - target: {fileID: 1959519650975226036, guid: 4ca5b51c084a48c4a9ec04b936a94161,
        type: 3}
      propertyPath: m_LocalEulerAnglesHint.z
      value: 0
      objectReference: {fileID: 0}
    m_RemovedComponents: []
  m_SourcePrefab: {fileID: 100100000, guid: 4ca5b51c084a48c4a9ec04b936a94161, type: 3}
