%YAML 1.1
%TAG !u! tag:unity3d.com,2011:
--- !u!114 &11400000
MonoBehaviour:
  m_ObjectHideFlags: 0
  m_CorrespondingSourceObject: {fileID: 0}
  m_PrefabInstance: {fileID: 0}
  m_PrefabAsset: {fileID: 0}
  m_GameObject: {fileID: 0}
  m_Enabled: 1
  m_EditorHideFlags: 0
  m_Script: {fileID: 11500000, guid: 75fe3320261d64d479cb019bc53201c1, type: 3}
  m_Name: FullControllerInputSettingsRight
  m_EditorClassIdentifier: 
  buttonHandlers:
  - {fileID: 11400000, guid: 974edece32ced6644a829ab6f21c2d02, type: 2}
  - {fileID: 11400000, guid: f95325464247268499a7e8209f4032da, type: 2}
  - {fileID: 11400000, guid: 41cfff488e6a4e1499af8a2a01deb399, type: 2}
  - {fileID: 11400000, guid: 203a3bc4299a58f4095545b9d105d4f7, type: 2}
  - {fileID: 11400000, guid: 3d14bad33cda5f5479a6bb4a14d3f40a, type: 2}
  - {fileID: 11400000, guid: b89057ea4182b8040aa43ec9c631b7ae, type: 2}
  - {fileID: 11400000, guid: 6647c652192141744a79c32dcbf6971a, type: 2}
  - {fileID: 11400000, guid: c4d24581af9fafe48a72d199ff20bc10, type: 2}
  - {fileID: 11400000, guid: 85fe6fb641a776044af0454ede8000b6, type: 2}
  - {fileID: 11400000, guid: a938e91b5170d7944879ee67286be68d, type: 2}
  - {fileID: 11400000, guid: 88eece5ed72daae4f9f9e6cb8f650c79, type: 2}
  - {fileID: 11400000, guid: a11ab87a8a71a154d842fbf62773a150, type: 2}
  - {fileID: 11400000, guid: 0a0f026953d173e45bc750fbadcfb8fe, type: 2}
  axisHandlers:
  - {fileID: 11400000, guid: 3973360dc5757714dbd6d208d96d4178, type: 2}
  - {fileID: 11400000, guid: 58cf64e074a210e429533a94154ed723, type: 2}
  axis2DHandlers:
  - {fileID: 11400000, guid: de848e98070fdc54fb9d4db93951b007, type: 2}
  - {fileID: 11400000, guid: 1343387676785fd45a69d3dfc81df62e, type: 2}
