%YAML 1.1
%TAG !u! tag:unity3d.com,2011:
--- !u!114 &11400000
MonoBehaviour:
  m_ObjectHideFlags: 0
  m_CorrespondingSourceObject: {fileID: 0}
  m_PrefabInstance: {fileID: 0}
  m_PrefabAsset: {fileID: 0}
  m_GameObject: {fileID: 0}
  m_Enabled: 1
  m_EditorHideFlags: 0
  m_Script: {fileID: 11500000, guid: 73f037e143ab3124887bcc1be0bee864, type: 3}
  m_Name: Strand Based Color Scheme
  m_EditorClassIdentifier: 
  visualScalesToColorStyles:
  - scale: 0
    color: {fileID: 11400000, guid: 989ee39a7e38b6340a55b0d7102c02ce, type: 2}
  - scale: 1
    color: {fileID: 11400000, guid: 989ee39a7e38b6340a55b0d7102c02ce, type: 2}
  - scale: 2
    color: {fileID: 11400000, guid: 989ee39a7e38b6340a55b0d7102c02ce, type: 2}
