%YAML 1.1
%TAG !u! tag:unity3d.com,2011:
--- !u!1 &5217586662734316034
GameObject:
  m_ObjectHideFlags: 0
  m_CorrespondingSourceObject: {fileID: 0}
  m_PrefabInstance: {fileID: 0}
  m_PrefabAsset: {fileID: 0}
  serializedVersion: 6
  m_Component:
  - component: {fileID: 5217586662734316032}
  - component: {fileID: 5217586662734316035}
  m_Layer: 0
  m_Name: CubeWireframe
  m_TagString: Untagged
  m_Icon: {fileID: 0}
  m_NavMeshLayer: 0
  m_StaticEditorFlags: 0
  m_IsActive: 1
--- !u!4 &5217586662734316032
Transform:
  m_ObjectHideFlags: 0
  m_CorrespondingSourceObject: {fileID: 0}
  m_PrefabInstance: {fileID: 0}
  m_PrefabAsset: {fileID: 0}
  m_GameObject: {fileID: 5217586662734316034}
  m_LocalRotation: {x: 0, y: 0, z: 0, w: 1}
  m_LocalPosition: {x: 0, y: 0, z: 0}
  m_LocalScale: {x: 1, y: 1, z: 1}
  m_Children: []
  m_Father: {fileID: 0}
  m_RootOrder: 0
  m_LocalEulerAnglesHint: {x: 0, y: 0, z: 0}
--- !u!114 &5217586662734316035
MonoBehaviour:
  m_ObjectHideFlags: 0
  m_CorrespondingSourceObject: {fileID: 0}
  m_PrefabInstance: {fileID: 0}
  m_PrefabAsset: {fileID: 0}
  m_GameObject: {fileID: 5217586662734316034}
  m_Enabled: 1
  m_EditorHideFlags: 0
  m_Script: {fileID: 11500000, guid: fbc8b17a63ecbf04fbf8257491cf2980, type: 3}
  m_Name: 
  m_EditorClassIdentifier: 
  cubeEdgeLineRendererPrefab: {fileID: 270231710345860729, guid: 4ce6150bd328d9f4db4217b6f1628c53,
    type: 3}
  linePositionsSpace: 1
  defaultColor: {r: 0.04405483, g: 0.61229116, b: 0.8490566, a: 1}
  highlightedColor: {r: 0.075694196, g: 0.764151, b: 0.22027014, a: 1}
